<svg width="32" height="32" viewBox="0 0 32 32" fill="none" xmlns="http://www.w3.org/2000/svg">
    <path d="M21.9545 9.01155H16.9468L12.0227 9C11.4895 9.01123 11.4895 9.01186 10.9773 9.00029L6.03227 9.01155H1.04545C0.470455 9.01155 0 9.42361 0 9.92725C0 10.0097 0.0104545 10.0921 0.0418181 10.1745L2.69727 18.6631C2.93773 19.4323 3.74273 20 4.70455 20H18.2955C19.2573 20 20.0623 19.4323 20.3132 18.6631L22.9686 10.1745L23 9.92725C23 9.42361 22.5295 9.01155 21.9545 9.01155ZM11.4895 9.01155H14.4273H8.55182H11.4895ZM11.5 16.3372C10.35 16.3372 9.40909 15.513 9.40909 14.5058C9.40909 13.4985 10.35 12.6744 11.5 12.6744C12.65 12.6744 13.5909 13.4985 13.5909 14.5058C13.5909 15.513 12.65 16.3372 11.5 16.3372Z" fill="#C3C3C3"/>
    <path d="M30.9545 19.0115H25.9468L21.0227 19C20.4895 19.0112 20.4895 19.0119 19.9773 19.0003L15.0323 19.0115H10.0455C9.47045 19.0115 9 19.4236 9 19.9273C9 20.0097 9.01045 20.0921 9.04182 20.1745L11.6973 28.6631C11.9377 29.4323 12.7427 30 13.7045 30H27.2955C28.2573 30 29.0623 29.4323 29.3132 28.6631L31.9686 20.1745L32 19.9273C32 19.4236 31.5295 19.0115 30.9545 19.0115ZM20.4895 19.0115H23.4273H17.5518H20.4895ZM20.5 26.3372C19.35 26.3372 18.4091 25.513 18.4091 24.5058C18.4091 23.4985 19.35 22.6744 20.5 22.6744C21.65 22.6744 22.5909 23.4985 22.5909 24.5058C22.5909 25.513 21.65 26.3372 20.5 26.3372Z" fill="black"/>
    <path d="M10 6L12 8L14 6" stroke="black" stroke-linecap="round" stroke-linejoin="round"/>
    <path d="M28 16.5V5C28 4.20435 27.7868 3.44129 27.4073 2.87868C27.0277 2.31607 26.513 2 25.9763 2H13C12.4477 2 12 2.44772 12 3V7" stroke="black" stroke-linecap="round" stroke-linejoin="round"/>
    <rect x="17" y="20" width="6" height="7" fill="black"/>
    <rect x="9" y="12" width="6" height="5" fill="#C3C3C3"/>
    <path d="M18.9443 20.8906L20.9951 26.3398L23.041 20.8906H24.6377V28H23.4072V25.6562L23.5293 22.5215L21.4297 28H20.5459L18.4512 22.5264L18.5732 25.6562V28H17.3428V20.8906H18.9443Z" fill="white"/>
    <path d="M11.6045 14.9531H10.7646V18H9.53418V10.8906H10.7646V13.8789H11.4434L13.5332 10.8906H15.0469L12.6055 14.2939L15.2617 18H13.7773L11.6045 14.9531Z" fill="black"/>
</svg>
